<?xml version="1.0" standalone="no"?>
<!DOCTYPE svg PUBLIC "-//W3C//DTD SVG 20010904//EN"
 "http://www.w3.org/TR/2001/REC-SVG-20010904/DTD/svg10.dtd">
<svg version="1.0" xmlns="http://www.w3.org/2000/svg"
 width="640.000000pt" height="640.000000pt" viewBox="0 0 640.000000 640.000000"
 preserveAspectRatio="xMidYMid meet">
<metadata>
Created by potrace 1.11, written by Peter Selinger 2001-2013
</metadata>
<g transform="translate(0.000000,640.000000) scale(0.100000,-0.100000)"
fill="#000000" stroke="none">
<path d="M3060 6063 c-713 -38 -1385 -336 -1886 -837 -681 -681 -976 -1662
-784 -2608 86 -423 263 -811 538 -1178 103 -138 359 -398 492 -500 433 -334
904 -529 1450 -602 125 -16 546 -16 670 0 560 76 1012 263 1450 600 110 85
387 362 472 472 334 435 525 895 600 1450 8 57 12 194 12 345 0 206 -4 275
-23 395 -149 970 -737 1771 -1606 2186 -428 204 -918 302 -1385 277z m375
-1248 c152 -44 269 -113 374 -217 107 -107 189 -246 227 -385 l18 -66 -85 -79
c-99 -93 -190 -161 -250 -187 -25 -11 -149 -50 -278 -86 l-234 -66 -236 66
c-130 36 -258 76 -286 89 -60 28 -142 90 -250 190 l-79 74 33 100 c122 373
463 613 851 597 74 -3 132 -12 195 -30z m-1562 -129 c56 -24 73 -54 138 -256
l63 -195 62 -65 63 -65 -39 -53 c-21 -29 -53 -81 -71 -117 -19 -36 -36 -65
-39 -65 -3 0 -51 46 -107 103 l-102 102 -75 231 c-42 127 -76 243 -76 258 0
66 63 128 138 135 7 0 27 -5 45 -13z m2760 0 c49 -21 79 -59 84 -108 4 -35
-10 -88 -71 -273 l-76 -230 -105 -107 -105 -108 -34 68 c-19 37 -52 92 -74
122 l-39 55 62 65 63 65 66 201 c68 204 82 231 136 253 35 14 56 13 93 -3z
m-2128 -851 c121 -87 256 -143 465 -194 l105 -26 3 -55 c40 -726 108 -2016
105 -2019 -6 -8 -186 41 -273 74 -486 186 -821 577 -941 1100 -29 128 -37 376
-16 515 41 273 147 516 321 737 l41 52 64 -70 c35 -39 92 -90 126 -114z m1706
30 c193 -284 282 -612 258 -955 -14 -194 -67 -387 -155 -561 -140 -280 -387
-529 -658 -666 -135 -68 -406 -157 -424 -139 -5 6 95 1982 104 2043 5 31 7 32
82 49 276 60 484 168 617 318 l59 66 28 -33 c15 -17 55 -72 89 -122z m-2325
-487 c-15 -58 -46 -208 -51 -250 -5 -41 -9 -47 -35 -53 -20 -4 -77 -56 -187
-170 -131 -135 -164 -164 -194 -170 -66 -12 -140 35 -158 102 -18 65 -1 93
183 285 l172 180 129 48 c72 27 134 49 139 49 4 1 6 -9 2 -21z m2784 -30 l122
-43 172 -180 c119 -124 177 -191 185 -216 23 -70 -12 -137 -85 -165 -74 -28
-97 -13 -269 166 -107 112 -156 158 -180 164 -32 9 -34 12 -40 70 -4 34 -18
104 -31 156 -28 112 -28 104 -9 97 8 -4 69 -25 135 -49z m-2746 -948 c16 -34
49 -89 73 -123 l43 -62 -62 -60 -63 -60 -64 -200 c-35 -110 -71 -208 -80 -219
-56 -65 -162 -60 -214 10 -37 50 -33 77 46 323 l76 232 102 110 c55 60 104
109 108 109 4 0 20 -27 35 -60z m2880 -375 c42 -127 76 -245 76 -264 0 -42
-33 -97 -70 -116 -43 -22 -101 -19 -141 8 -32 21 -39 38 -106 237 l-73 215
-59 53 -60 53 53 82 c30 45 63 102 76 126 l22 44 103 -104 103 -104 76 -230z"/>
</g>
</svg>
